simulation/qsim/LogicalStep_Lab2.msim.vcd
$comment
	File created using the following command:
		vcd file LogicalStep_Lab2.msim.vcd -direction
$end
$date
	Sat Feb 08 12:42:34 2025
$end
$version
	ModelSim Version 10.5b
$end
$timescale
	1ps
$end

$scope module logicalstep_lab2_top_vhd_vec_tst $end
$var wire 1 ! clkin_50 $end
$var wire 1 " leds [7] $end
$var wire 1 # leds [6] $end
$var wire 1 $ leds [5] $end
$var wire 1 % leds [4] $end
$var wire 1 & leds [3] $end
$var wire 1 ' leds [2] $end
$var wire 1 ( leds [1] $end
$var wire 1 ) leds [0] $end
$var wire 1 * pb_n [3] $end
$var wire 1 + pb_n [2] $end
$var wire 1 , pb_n [1] $end
$var wire 1 - pb_n [0] $end
$var wire 1 . seg7_char1 $end
$var wire 1 / seg7_char2 $end
$var wire 1 0 seg7_data [6] $end
$var wire 1 1 seg7_data [5] $end
$var wire 1 2 seg7_data [4] $end
$var wire 1 3 seg7_data [3] $end
$var wire 1 4 seg7_data [2] $end
$var wire 1 5 seg7_data [1] $end
$var wire 1 6 seg7_data [0] $end
$var wire 1 7 sw [7] $end
$var wire 1 8 sw [6] $end
$var wire 1 9 sw [5] $end
$var wire 1 : sw [4] $end
$var wire 1 ; sw [3] $end
$var wire 1 < sw [2] $end
$var wire 1 = sw [1] $end
$var wire 1 > sw [0] $end

$scope module i1 $end
$var wire 1 ? gnd $end
$var wire 1 @ vcc $end
$var wire 1 A unknown $end
$var wire 1 B devoe $end
$var wire 1 C devclrn $end
$var wire 1 D devpor $end
$var wire 1 E ww_devoe $end
$var wire 1 F ww_devclrn $end
$var wire 1 G ww_devpor $end
$var wire 1 H ww_clkin_50 $end
$var wire 1 I ww_pb_n [3] $end
$var wire 1 J ww_pb_n [2] $end
$var wire 1 K ww_pb_n [1] $end
$var wire 1 L ww_pb_n [0] $end
$var wire 1 M ww_sw [7] $end
$var wire 1 N ww_sw [6] $end
$var wire 1 O ww_sw [5] $end
$var wire 1 P ww_sw [4] $end
$var wire 1 Q ww_sw [3] $end
$var wire 1 R ww_sw [2] $end
$var wire 1 S ww_sw [1] $end
$var wire 1 T ww_sw [0] $end
$var wire 1 U ww_leds [7] $end
$var wire 1 V ww_leds [6] $end
$var wire 1 W ww_leds [5] $end
$var wire 1 X ww_leds [4] $end
$var wire 1 Y ww_leds [3] $end
$var wire 1 Z ww_leds [2] $end
$var wire 1 [ ww_leds [1] $end
$var wire 1 \ ww_leds [0] $end
$var wire 1 ] ww_seg7_data [6] $end
$var wire 1 ^ ww_seg7_data [5] $end
$var wire 1 _ ww_seg7_data [4] $end
$var wire 1 ` ww_seg7_data [3] $end
$var wire 1 a ww_seg7_data [2] $end
$var wire 1 b ww_seg7_data [1] $end
$var wire 1 c ww_seg7_data [0] $end
$var wire 1 d ww_seg7_char1 $end
$var wire 1 e ww_seg7_char2 $end
$var wire 1 f \pb_n[2]~input_o\ $end
$var wire 1 g \pb_n[3]~input_o\ $end
$var wire 1 h \seg7_data[1]~output_o\ $end
$var wire 1 i \seg7_data[5]~output_o\ $end
$var wire 1 j \seg7_data[6]~output_o\ $end
$var wire 1 k \leds[0]~output_o\ $end
$var wire 1 l \leds[1]~output_o\ $end
$var wire 1 m \leds[2]~output_o\ $end
$var wire 1 n \leds[3]~output_o\ $end
$var wire 1 o \leds[4]~output_o\ $end
$var wire 1 p \leds[5]~output_o\ $end
$var wire 1 q \leds[6]~output_o\ $end
$var wire 1 r \leds[7]~output_o\ $end
$var wire 1 s \seg7_data[0]~output_o\ $end
$var wire 1 t \seg7_data[2]~output_o\ $end
$var wire 1 u \seg7_data[3]~output_o\ $end
$var wire 1 v \seg7_data[4]~output_o\ $end
$var wire 1 w \seg7_char1~output_o\ $end
$var wire 1 x \seg7_char2~output_o\ $end
$var wire 1 y \sw[4]~input_o\ $end
$var wire 1 z \sw[5]~input_o\ $end
$var wire 1 { \sw[6]~input_o\ $end
$var wire 1 | \sw[7]~input_o\ $end
$var wire 1 } \INST7|Mux5~0_combout\ $end
$var wire 1 ~ \sw[0]~input_o\ $end
$var wire 1 !! \sw[1]~input_o\ $end
$var wire 1 "! \sw[2]~input_o\ $end
$var wire 1 #! \sw[3]~input_o\ $end
$var wire 1 $! \INST6|Mux5~0_combout\ $end
$var wire 1 %! \clkin_50~input_o\ $end
$var wire 1 &! \INST8|clk_proc:COUNT[0]~0_combout\ $end
$var wire 1 '! \INST8|clk_proc:COUNT[0]~q\ $end
$var wire 1 (! \INST8|clk_proc:COUNT[1]~1_combout\ $end
$var wire 1 )! \INST8|clk_proc:COUNT[1]~q\ $end
$var wire 1 *! \INST8|clk_proc:COUNT[1]~2\ $end
$var wire 1 +! \INST8|clk_proc:COUNT[2]~1_combout\ $end
$var wire 1 ,! \INST8|clk_proc:COUNT[2]~q\ $end
$var wire 1 -! \INST8|clk_proc:COUNT[2]~2\ $end
$var wire 1 .! \INST8|clk_proc:COUNT[3]~1_combout\ $end
$var wire 1 /! \INST8|clk_proc:COUNT[3]~q\ $end
$var wire 1 0! \INST8|clk_proc:COUNT[3]~2\ $end
$var wire 1 1! \INST8|clk_proc:COUNT[4]~1_combout\ $end
$var wire 1 2! \INST8|clk_proc:COUNT[4]~q\ $end
$var wire 1 3! \INST8|clk_proc:COUNT[4]~2\ $end
$var wire 1 4! \INST8|clk_proc:COUNT[5]~1_combout\ $end
$var wire 1 5! \INST8|clk_proc:COUNT[5]~q\ $end
$var wire 1 6! \INST8|clk_proc:COUNT[5]~2\ $end
$var wire 1 7! \INST8|clk_proc:COUNT[6]~1_combout\ $end
$var wire 1 8! \INST8|clk_proc:COUNT[6]~q\ $end
$var wire 1 9! \INST8|clk_proc:COUNT[6]~2\ $end
$var wire 1 :! \INST8|clk_proc:COUNT[7]~1_combout\ $end
$var wire 1 ;! \INST8|clk_proc:COUNT[7]~q\ $end
$var wire 1 <! \INST8|clk_proc:COUNT[7]~2\ $end
$var wire 1 =! \INST8|clk_proc:COUNT[8]~1_combout\ $end
$var wire 1 >! \INST8|clk_proc:COUNT[8]~q\ $end
$var wire 1 ?! \INST8|clk_proc:COUNT[8]~2\ $end
$var wire 1 @! \INST8|clk_proc:COUNT[9]~1_combout\ $end
$var wire 1 A! \INST8|clk_proc:COUNT[9]~q\ $end
$var wire 1 B! \INST8|clk_proc:COUNT[9]~2\ $end
$var wire 1 C! \INST8|clk_proc:COUNT[10]~1_combout\ $end
$var wire 1 D! \INST8|clk_proc:COUNT[10]~q\ $end
$var wire 1 E! \INST8|DOUT_TEMP[1]~0_combout\ $end
$var wire 1 F! \INST7|Mux1~0_combout\ $end
$var wire 1 G! \INST6|Mux1~0_combout\ $end
$var wire 1 H! \INST8|DOUT_TEMP[5]~1_combout\ $end
$var wire 1 I! \INST7|Mux0~0_combout\ $end
$var wire 1 J! \INST6|Mux0~0_combout\ $end
$var wire 1 K! \INST8|DOUT_TEMP[6]~2_combout\ $end
$var wire 1 L! \pb_n[0]~input_o\ $end
$var wire 1 M! \pb_n[1]~input_o\ $end
$var wire 1 N! \INST2|Mux3~0_combout\ $end
$var wire 1 O! \INST2|Mux2~0_combout\ $end
$var wire 1 P! \INST2|Mux1~0_combout\ $end
$var wire 1 Q! \INST2|Mux0~0_combout\ $end
$var wire 1 R! \INST7|Mux6~0_combout\ $end
$var wire 1 S! \INST6|Mux6~0_combout\ $end
$var wire 1 T! \INST8|DOUT[0]~0_combout\ $end
$var wire 1 U! \INST7|Mux4~0_combout\ $end
$var wire 1 V! \INST6|Mux4~0_combout\ $end
$var wire 1 W! \INST8|DOUT[2]~2_combout\ $end
$var wire 1 X! \INST7|Mux3~0_combout\ $end
$var wire 1 Y! \INST6|Mux3~0_combout\ $end
$var wire 1 Z! \INST8|DOUT[3]~3_combout\ $end
$var wire 1 [! \INST7|Mux2~0_combout\ $end
$var wire 1 \! \INST6|Mux2~0_combout\ $end
$var wire 1 ]! \INST8|DOUT[4]~4_combout\ $end
$var wire 1 ^! \INST8|ALT_INV_DOUT[4]~4_combout\ $end
$var wire 1 _! \INST8|ALT_INV_DOUT[3]~3_combout\ $end
$var wire 1 `! \INST8|ALT_INV_DOUT[2]~2_combout\ $end
$var wire 1 a! \INST8|ALT_INV_DOUT[0]~0_combout\ $end
$var wire 1 b! \INST8|ALT_INV_clk_proc:COUNT[10]~q\ $end
$upscope $end
$upscope $end
$enddefinitions $end
#0
$dumpvars
x!
0.
1/
0?
1@
xA
1B
1C
1D
1E
1F
1G
xH
0d
1e
xf
xg
zh
zi
zj
1k
0l
0m
0n
0o
0p
0q
0r
1s
1t
1u
0v
0w
1x
1y
1z
1{
0|
0}
1~
0!!
0"!
1#!
0$!
x%!
1&!
0'!
0(!
0)!
0*!
0+!
0,!
1-!
0.!
0/!
00!
01!
02!
13!
04!
05!
06!
07!
08!
19!
0:!
0;!
0<!
0=!
0>!
1?!
0@!
0A!
0B!
0C!
0D!
1E!
1F!
0G!
1H!
0I!
1J!
1K!
0L!
0M!
1N!
0O!
0P!
0Q!
0R!
0S!
0T!
0U!
0V!
0W!
1X!
0Y!
0Z!
1[!
1\!
1]!
0^!
1_!
1`!
1a!
1b!
x*
x+
0,
0-
07
18
19
1:
1;
0<
0=
1>
0"
0#
0$
0%
0&
0'
0(
1)
z0
z1
02
13
14
z5
16
xI
xJ
0K
0L
0M
1N
1O
1P
1Q
0R
0S
1T
0U
0V
0W
0X
0Y
0Z
0[
1\
z]
z^
0_
1`
1a
zb
1c
$end
#100000
1-
1L
1L!
1O!
1P!
1Q!
1n
1m
1l
1Y
1Z
1[
1(
1'
1&
#200000
0-
1,
0L
1K
1M!
0L!
0N!
0k
0\
0)
#300000
1-
1L
1L!
1N!
0O!
0P!
0Q!
0n
0m
0l
1k
0Y
0Z
0[
1\
1)
0(
0'
0&
#400000
0-
0,
17
08
0:
0;
1<
0L
0K
1R
0Q
0P
0N
1M
1|
0{
0y
0#!
1"!
0M!
0L!
1$!
0N!
0F!
1I!
0[!
0k
0E!
0\
0h
0)
0b
05
#500000
1-
1L
1L!
1N!
1O!
1P!
1Q!
1n
1m
1l
1k
1Y
1Z
1[
1\
1)
1(
1'
1&
#600000
0-
1,
0L
1K
1M!
0L!
#700000
1-
1L
1L!
0N!
0O!
0P!
0Q!
0n
0m
0l
0k
0Y
0Z
0[
0\
0)
0(
0'
0&
#800000
0-
0,
18
1;
0<
09
1=
0L
0K
1S
0R
1Q
0O
1N
1{
0z
1#!
0"!
1!!
0M!
0L!
1Q!
1S!
0\!
1}
1F!
1R!
1U!
0X!
1n
0]!
1T!
0a!
1^!
1Y
1&
1v
0s
1_
0c
06
12
#900000
1-
1L
1L!
1N!
1O!
1P!
1m
1l
1k
1Z
1[
1\
1)
1(
1'
#1000000
0-
1,
0L
1K
1M!
0L!
0Q!
0n
0Y
0&
#1100000
1-
1L
1L!
0N!
0O!
0P!
1Q!
1n
0m
0l
0k
1Y
0Z
0[
0\
0)
0(
0'
1&
#1200000
0-
0,
08
1<
07
0L
0K
1R
0N
0M
0|
0{
1"!
0M!
0L!
0S!
1V!
1Y!
0}
0F!
0I!
0Q!
0R!
0U!
0n
1Z!
1W!
0T!
1a!
0`!
0_!
0Y
0&
0u
0t
1s
0`
0a
1c
16
04
03
#1300000
1-
1L
1L!
1N!
1O!
1P!
1Q!
1n
1m
1l
1k
1Y
1Z
1[
1\
1)
1(
1'
1&
#1400000
0-
1,
0L
1K
1M!
0L!
#1500000
1-
1L
1L!
0N!
0O!
0P!
0Q!
0n
0m
0l
0k
0Y
0Z
0[
0\
0)
0(
0'
0&
